[
    {
        "name": "HEVC 4K Apple Silicon",
        "type": "codec",
        "content": "-c:v hevc_videotoolbox -q:v 45 -tag:v hvc1"
    },
    {
        "name": "HEVC 1080p Apple Silicon",
        "type": "codec",
        "content": "-c:v hevc_videotoolbox -q:v 35 -tag:v hvc1"
    },



    {
        "name": "Every minute (testing only)",
        "type": "schedule",
        "content": {
            "minute": "*/1",
            "hour": "*",
            "day": "*",
            "day_of_week": "*",
            "month": "*"
        }
    },
    {
        "name": "Every 30 minutes",
        "type": "schedule",
        "content": {
            "minute": "*/30",
            "hour": "*",
            "day": "*",
            "day_of_week": "*",
            "month": "*"
        }
    },
    {
        "name": "Every hour",
        "type": "schedule",
        "content": {
            "minute": "*",
            "hour": "0",
            "day": "*",
            "day_of_week": "*",
            "month": "*"
        }
    },
    {
        "name": "Every day at 03:00",
        "type": "schedule",
        "content": {
            "minute": "0",
            "hour": "3",
            "day": "*",
            "day_of_week": "*",
            "month": "*"
        }
    },
    {
        "name": "Every Monday at 03:00",
        "type": "schedule",
        "content": {
            "minute": "0",
            "hour": "3",
            "day": "0",
            "day_of_week": "1",
            "month": "*"
        }
    },



    {
        "name": "Jellyfin (test)",
        "type": "outlet",
        "content": {
            "path": "./test/",
            "video": "%(title)s [%(id)s]/%(title)s [%(id)s].%(ext)s",
            "thumbnail": "%(title)s [%(id)s]/poster.%(ext)s",
            "info": "%(title)s [%(id)s]/%(title)s [%(id)s].%(ext)s"
        }
    },
    {
        "name": "Jellyfin",
        "type": "outlet",
        "content": {
            "path": "/host/<your_library>",
            "video": "%(title)s [%(id)s]/%(title)s [%(id)s].%(ext)s",
            "thumbnail": "%(title)s [%(id)s]/poster.%(ext)s",
            "info": "%(title)s [%(id)s]/%(title)s [%(id)s].%(ext)s"
        }
    }
]